Project 1 - Group H
…
  # combine to a list
  combined_data <- list(county = combined_county, non_county = combined_non_county)
  
  # return results
  return(combined_data)
}

# call function and combine data
combined_processed_data <- combine_processed_data(EDU01a_part, EDU01b_part)

# print results
combined_processed_data$county

# A tibble: 62,900 × 7
   area_name   STCOU enrollment number  year measurement state
   <chr>       <chr> <chr>       <dbl> <dbl> <chr>       <chr>
 1 Autauga, AL 01001 EDU010187D   6829  1987 EDU0101     AL   
 2 Autauga, AL 01001 EDU010188D   6900  1988 EDU0101     AL   
 3 Autauga, AL 01001 EDU010189D   6920  1989 EDU0101     AL   
 4 Autauga, AL 01001 EDU010190D   6847  1990 EDU0101     AL   
 5 Autauga, AL 01001 EDU010191D   7008  1991 EDU0101     AL   
 6 Autauga, AL 01001 EDU010192D   7137  1992 EDU0101     AL   
 7 Autauga, AL 01001 EDU010193D   7152  1993 EDU0101     AL   
 8 Autauga, AL 01001 EDU010194D   7381  1994 EDU0101     AL   
 9 Autauga, AL 01001 EDU010195D   7568  1995 EDU0101     AL   
10 Autauga, AL 01001 EDU010196D   7834  1996 EDU0101     AL   
# ℹ 62,890 more rows

combined_processed_data$non_county

# A tibble: 1,060 × 7
   area_name     STCOU enrollment   number  year measurement division
   <chr>         <chr> <chr>         <dbl> <dbl> <chr>       <chr>   
 1 UNITED STATES 00000 EDU010187D 40024299  1987 EDU0101     ERROR   
 2 UNITED STATES 00000 EDU010188D 39967624  1988 EDU0101     ERROR   
 3 UNITED STATES 00000 EDU010189D 40317775  1989 EDU0101     ERROR   
 4 UNITED STATES 00000 EDU010190D 40737600  1990 EDU0101     ERROR   
 5 UNITED STATES 00000 EDU010191D 41385442  1991 EDU0101     ERROR   
 6 UNITED STATES 00000 EDU010192D 42088151  1992 EDU0101     ERROR   
 7 UNITED STATES 00000 EDU010193D 42724710  1993 EDU0101     ERROR   
 8 UNITED STATES 00000 EDU010194D 43369917  1994 EDU0101     ERROR   
 9 UNITED STATES 00000 EDU010195D 43993459  1995 EDU0101     ERROR   
10 UNITED STATES 00000 EDU010196D 44715737  1996 EDU0101     ERROR   
# ℹ 1,050 more rows
…
